module gitlab.com/mohammed-strive/demystdata

go 1.22.2

require (
	github.com/h2non/gock v1.2.0
	github.com/onsi/ginkgo/v2 v2.17.1
	github.com/onsi/gomega v1.32.0
)

require (
	github.com/go-logr/logr v1.4.1 // indirect
	github.com/go-task/slim-sprig v0.0.0-20230315185526-52ccab3ef572 // indirect
	github.com/google/go-cmp v0.6.0 // indirect
	github.com/google/pprof v0.0.0-20210407192527-94a9f03dee38 // indirect
	github.com/h2non/parth v0.0.0-20190131123155-b4df798d6542 // indirect
	golang.org/x/net v0.20.0 // indirect
	golang.org/x/sys v0.16.0 // indirect
	golang.org/x/text v0.14.0 // indirect
	golang.org/x/tools v0.17.0 // indirect
	gopkg.in/yaml.v3 v3.0.1 // indirect
)
